module testssl

go 1.22

require github.com/rs/zerolog v1.32.0

require (
	github.com/mattn/go-colorable v0.1.13 // indirect
	github.com/mattn/go-isatty v0.0.20 // indirect
	golang.org/x/sys v0.19.0 // indirect
)
