module golang-rest-svc-starter

go 1.22

toolchain go1.22.1

require (
	github.com/alecthomas/template v0.0.0-20190718012654-fb15b899a751
	github.com/fatih/structs v1.1.0
	github.com/ghodss/yaml v1.0.0
	github.com/labstack/echo/v4 v4.11.4
	github.com/labstack/gommon v0.4.2
	github.com/lib/pq v1.10.9
	github.com/swaggo/echo-swagger v1.4.1
	github.com/swaggo/swag v1.16.3
	github.com/urfave/cli/v2 v2.27.1
)

require (
	github.com/KyleBanks/depth v1.2.1 // indirect
	github.com/cpuguy83/go-md2man/v2 v2.0.4 // indirect
	github.com/go-openapi/jsonpointer v0.21.0 // indirect
	github.com/go-openapi/jsonreference v0.21.0 // indirect
	github.com/go-openapi/spec v0.21.0 // indirect
	github.com/go-openapi/swag v0.23.0 // indirect
	github.com/golang-jwt/jwt v3.2.2+incompatible // indirect
	github.com/josharian/intern v1.0.0 // indirect
	github.com/mailru/easyjson v0.7.7 // indirect
	github.com/mattn/go-colorable v0.1.13 // indirect
	github.com/mattn/go-isatty v0.0.20 // indirect
	github.com/russross/blackfriday/v2 v2.1.0 // indirect
	github.com/swaggo/files/v2 v2.0.0 // indirect
	github.com/valyala/bytebufferpool v1.0.0 // indirect
	github.com/valyala/fasttemplate v1.2.2 // indirect
	github.com/xrash/smetrics v0.0.0-20240312152122-5f08fbb34913 // indirect
	golang.org/x/crypto v0.22.0 // indirect
	golang.org/x/net v0.24.0 // indirect
	golang.org/x/sys v0.19.0 // indirect
	golang.org/x/text v0.14.0 // indirect
	golang.org/x/time v0.5.0 // indirect
	golang.org/x/tools v0.20.0 // indirect
	gopkg.in/yaml.v2 v2.4.0 // indirect
	gopkg.in/yaml.v3 v3.0.1 // indirect
	sigs.k8s.io/yaml v1.3.0 // indirect
)
